<?xml version="1.0" encoding="UTF-8"?>
  <urlset xmlns="http://www.sitemaps.org/schemas/sitemap/0.9"
          xmlns:xsi="http://www.w3.org/2001/XMLSchema-instance"
          xsi:schemaLocation="http://www.sitemaps.org/schemas/sitemap/0.9 http://www.sitemaps.org/schemas/sitemap/0.9/sitemap.xsd">
      
      <url>
          <loc>https://Reitstaetter.gitlab.io/terminolo-git-4-ws-202205/CodeSystem-zuppl-hl7-language-identification-4-elga-humanlanguage.html</loc>
          <lastmod>2022-05-17</lastmod>
          <changefreq>weekly</changefreq>
          <priority>1.0</priority>
      </url>
      
      <url>
          <loc>https://Reitstaetter.gitlab.io/terminolo-git-4-ws-202205/CodeSystem-zuppl-sciphox-diagnosenzusatz-4-elga-diagnosesicherheit.html</loc>
          <lastmod>2022-05-17</lastmod>
          <changefreq>weekly</changefreq>
          <priority>1.0</priority>
      </url>
      
      <url>
          <loc>https://Reitstaetter.gitlab.io/terminolo-git-4-ws-202205/CodeSystem-zuppl-snomed-ct-auszug-4-elga-typeofproblem.html</loc>
          <lastmod>2022-05-17</lastmod>
          <changefreq>weekly</changefreq>
          <priority>1.0</priority>
      </url>
      
      <url>
          <loc>https://Reitstaetter.gitlab.io/terminolo-git-4-ws-202205/CodeSystem-zuppl-elga-sections-4-elga-serviceeventslabor.html</loc>
          <lastmod>2022-05-17</lastmod>
          <changefreq>weekly</changefreq>
          <priority>1.0</priority>
      </url>
      
      <url>
          <loc>https://Reitstaetter.gitlab.io/terminolo-git-4-ws-202205/CodeSystem-zuppl-careteamcategory-4-elga-conditionstatuscode.html</loc>
          <lastmod>2022-05-17</lastmod>
          <changefreq>weekly</changefreq>
          <priority>1.0</priority>
      </url>
      
      <url>
          <loc>https://Reitstaetter.gitlab.io/terminolo-git-4-ws-202205/CodeSystem-zuppl-hl7-entity-name-part-qualifi-4-elga-entitynamepartqualifie.html</loc>
          <lastmod>2022-05-17</lastmod>
          <changefreq>weekly</changefreq>
          <priority>1.0</priority>
      </url>
      
      <url>
          <loc>https://Reitstaetter.gitlab.io/terminolo-git-4-ws-202205/CodeSystem-zuppl-eimpf-impfstoffe-4-eimpf-impfstoffe.html</loc>
          <lastmod>2022-05-17</lastmod>
          <changefreq>weekly</changefreq>
          <priority>1.0</priority>
      </url>
      
      <url>
          <loc>https://Reitstaetter.gitlab.io/terminolo-git-4-ws-202205/CodeSystem-zuppl-loinc-4-elga-antibiogramm.html</loc>
          <lastmod>2022-05-17</lastmod>
          <changefreq>weekly</changefreq>
          <priority>1.0</priority>
      </url>
      
      <url>
          <loc>https://Reitstaetter.gitlab.io/terminolo-git-4-ws-202205/CodeSystem-zuppl-lkf-diagnose-typ-4-lkf-diagnose-typ.html</loc>
          <lastmod>2022-05-17</lastmod>
          <changefreq>weekly</changefreq>
          <priority>1.0</priority>
      </url>
      
      <url>
          <loc>https://Reitstaetter.gitlab.io/terminolo-git-4-ws-202205/CodeSystem-zuppl-loinc-4-elga-vitalparameterarten.html</loc>
          <lastmod>2022-05-17</lastmod>
          <changefreq>weekly</changefreq>
          <priority>1.0</priority>
      </url>
      
      <url>
          <loc>https://Reitstaetter.gitlab.io/terminolo-git-4-ws-202205/CodeSystem-zuppl-appc-lateralitaet-4-appc-lateralitaet.html</loc>
          <lastmod>2022-05-17</lastmod>
          <changefreq>weekly</changefreq>
          <priority>1.0</priority>
      </url>
      
      <url>
          <loc>https://Reitstaetter.gitlab.io/terminolo-git-4-ws-202205/CodeSystem-zuppl-elga-laborparameterergaenzun-4-elga-antibiogramm.html</loc>
          <lastmod>2022-05-17</lastmod>
          <changefreq>weekly</changefreq>
          <priority>1.0</priority>
      </url>
      
      <url>
          <loc>https://Reitstaetter.gitlab.io/terminolo-git-4-ws-202205/CodeSystem-zuppl-loinc-4-elga-sectionsentlassungaerz.html</loc>
          <lastmod>2022-05-17</lastmod>
          <changefreq>weekly</changefreq>
          <priority>1.0</priority>
      </url>
      
      <url>
          <loc>https://Reitstaetter.gitlab.io/terminolo-git-4-ws-202205/CodeSystem-zuppl-ems-krankheitsmerkmale-4-ems-krankheitsmerkmale.html</loc>
          <lastmod>2022-05-17</lastmod>
          <changefreq>weekly</changefreq>
          <priority>1.0</priority>
      </url>
      
      <url>
          <loc>https://Reitstaetter.gitlab.io/terminolo-git-4-ws-202205/CodeSystem-zuppl-elga-serviceeventsentlassbri-4-elga-serviceeventsentlassbr.html</loc>
          <lastmod>2022-05-17</lastmod>
          <changefreq>weekly</changefreq>
          <priority>1.0</priority>
      </url>
      
      <url>
          <loc>https://Reitstaetter.gitlab.io/terminolo-git-4-ws-202205/CodeSystem-zuppl-dcm-4-elga-auditroleid.html</loc>
          <lastmod>2022-05-17</lastmod>
          <changefreq>weekly</changefreq>
          <priority>1.0</priority>
      </url>
      
      <url>
          <loc>https://Reitstaetter.gitlab.io/terminolo-git-4-ws-202205/CodeSystem-zuppl-loinc-4-elga-dokumentenklassen.html</loc>
          <lastmod>2022-05-17</lastmod>
          <changefreq>weekly</changefreq>
          <priority>1.0</priority>
      </url>
      
      <url>
          <loc>https://Reitstaetter.gitlab.io/terminolo-git-4-ws-202205/CodeSystem-zuppl-elga-gda-aggregatrollen-4-elga-rollen.html</loc>
          <lastmod>2022-05-17</lastmod>
          <changefreq>weekly</changefreq>
          <priority>1.0</priority>
      </url>
      
      <url>
          <loc>https://Reitstaetter.gitlab.io/terminolo-git-4-ws-202205/CodeSystem-zuppl-hl7-address-use-4-elga-addressuse.html</loc>
          <lastmod>2022-05-17</lastmod>
          <changefreq>weekly</changefreq>
          <priority>1.0</priority>
      </url>
      
      <url>
          <loc>https://Reitstaetter.gitlab.io/terminolo-git-4-ws-202205/CodeSystem-zuppl-elga-funktionsrollen-4-elga-rollen.html</loc>
          <lastmod>2022-05-17</lastmod>
          <changefreq>weekly</changefreq>
          <priority>1.0</priority>
      </url>
      
      <url>
          <loc>https://Reitstaetter.gitlab.io/terminolo-git-4-ws-202205/CodeSystem-zuppl-elga-fachaerzte-4-elga-authorspeciality.html</loc>
          <lastmod>2022-05-17</lastmod>
          <changefreq>weekly</changefreq>
          <priority>1.0</priority>
      </url>
      
      <url>
          <loc>https://Reitstaetter.gitlab.io/terminolo-git-4-ws-202205/CodeSystem-zuppl-elga-sections-4-elga-sectionsentlassungaerz.html</loc>
          <lastmod>2022-05-17</lastmod>
          <changefreq>weekly</changefreq>
          <priority>1.0</priority>
      </url>
      
      <url>
          <loc>https://Reitstaetter.gitlab.io/terminolo-git-4-ws-202205/CodeSystem-zuppl-hl7-confidentiality-code-4-elga-confidentiality.html</loc>
          <lastmod>2022-05-17</lastmod>
          <changefreq>weekly</changefreq>
          <priority>1.0</priority>
      </url>
      
      <url>
          <loc>https://Reitstaetter.gitlab.io/terminolo-git-4-ws-202205/CodeSystem-zuppl-medikationtherapieart-4-elga-medikationtherapieart.html</loc>
          <lastmod>2022-05-17</lastmod>
          <changefreq>weekly</changefreq>
          <priority>1.0</priority>
      </url>
      
      <url>
          <loc>https://Reitstaetter.gitlab.io/terminolo-git-4-ws-202205/CodeSystem-zuppl-snomed-ct-auszug-4-ems-hospitalisierung.html</loc>
          <lastmod>2022-05-17</lastmod>
          <changefreq>weekly</changefreq>
          <priority>1.0</priority>
      </url>
      
      <url>
          <loc>https://Reitstaetter.gitlab.io/terminolo-git-4-ws-202205/CodeSystem-zuppl-elga-auditparticipantobjectt-4-elga-auditparticipantobject.html</loc>
          <lastmod>2022-05-17</lastmod>
          <changefreq>weekly</changefreq>
          <priority>1.0</priority>
      </url>
      
      <url>
          <loc>https://Reitstaetter.gitlab.io/terminolo-git-4-ws-202205/CodeSystem-zuppl-ems-posneg-4-ems-hbv-status.html</loc>
          <lastmod>2022-05-17</lastmod>
          <changefreq>weekly</changefreq>
          <priority>1.0</priority>
      </url>
      
      <url>
          <loc>https://Reitstaetter.gitlab.io/terminolo-git-4-ws-202205/CodeSystem-zuppl-hl7-specimen-type-4-elga-specimentype.html</loc>
          <lastmod>2022-05-17</lastmod>
          <changefreq>weekly</changefreq>
          <priority>1.0</priority>
      </url>
      
      <url>
          <loc>https://Reitstaetter.gitlab.io/terminolo-git-4-ws-202205/CodeSystem-zuppl-snomed-ct-auszug-4-elga-noinformation.html</loc>
          <lastmod>2022-05-17</lastmod>
          <changefreq>weekly</changefreq>
          <priority>1.0</priority>
      </url>
      
      <url>
          <loc>https://Reitstaetter.gitlab.io/terminolo-git-4-ws-202205/CodeSystem-zuppl-snomed-ct-auszug-4-elga-anamneselabormikrobiol.html</loc>
          <lastmod>2022-05-17</lastmod>
          <changefreq>weekly</changefreq>
          <priority>1.0</priority>
      </url>
      
      <url>
          <loc>https://Reitstaetter.gitlab.io/terminolo-git-4-ws-202205/CodeSystem-zuppl-hl7-role-code-4-elga-personalrelationship.html</loc>
          <lastmod>2022-05-17</lastmod>
          <changefreq>weekly</changefreq>
          <priority>1.0</priority>
      </url>
      
      <url>
          <loc>https://Reitstaetter.gitlab.io/terminolo-git-4-ws-202205/CodeSystem-zuppl-elga-auditeventid-4-elga-auditeventid.html</loc>
          <lastmod>2022-05-17</lastmod>
          <changefreq>weekly</changefreq>
          <priority>1.0</priority>
      </url>
      
      <url>
          <loc>https://Reitstaetter.gitlab.io/terminolo-git-4-ws-202205/CodeSystem-zuppl-snomed-ct-auszug-4-elga-allergyreaction.html</loc>
          <lastmod>2022-05-17</lastmod>
          <changefreq>weekly</changefreq>
          <priority>1.0</priority>
      </url>
      
      <url>
          <loc>https://Reitstaetter.gitlab.io/terminolo-git-4-ws-202205/CodeSystem-zuppl-eimpf-impfstoffe-4-dgc-vaccinemarketingauthori.html</loc>
          <lastmod>2022-05-17</lastmod>
          <changefreq>weekly</changefreq>
          <priority>1.0</priority>
      </url>
      
      <url>
          <loc>https://Reitstaetter.gitlab.io/terminolo-git-4-ws-202205/CodeSystem-zuppl-lkf-diagnose-statauf-4-lkf-diagnose-statauf.html</loc>
          <lastmod>2022-05-17</lastmod>
          <changefreq>weekly</changefreq>
          <priority>1.0</priority>
      </url>
      
      <url>
          <loc>https://Reitstaetter.gitlab.io/terminolo-git-4-ws-202205/CodeSystem-zuppl-ems-klinischemanifestation-4-ems-klinischemanifestation.html</loc>
          <lastmod>2022-05-17</lastmod>
          <changefreq>weekly</changefreq>
          <priority>1.0</priority>
      </url>
      
      <url>
          <loc>https://Reitstaetter.gitlab.io/terminolo-git-4-ws-202205/CodeSystem-zuppl-ems-betreuung-4-ems-betreuung.html</loc>
          <lastmod>2022-05-17</lastmod>
          <changefreq>weekly</changefreq>
          <priority>1.0</priority>
      </url>
      
      <url>
          <loc>https://Reitstaetter.gitlab.io/terminolo-git-4-ws-202205/CodeSystem-zuppl-elga-auditeventtype-4-elga-auditeventtype.html</loc>
          <lastmod>2022-05-17</lastmod>
          <changefreq>weekly</changefreq>
          <priority>1.0</priority>
      </url>
      
      <url>
          <loc>https://Reitstaetter.gitlab.io/terminolo-git-4-ws-202205/CodeSystem-zuppl-icd-10-bmg-2014-4-elga-problemkataloge.html</loc>
          <lastmod>2022-05-17</lastmod>
          <changefreq>weekly</changefreq>
          <priority>1.0</priority>
      </url>
      
      <url>
          <loc>https://Reitstaetter.gitlab.io/terminolo-git-4-ws-202205/CodeSystem-zuppl-elga-formatcode-4-elga-formatcode.html</loc>
          <lastmod>2022-05-17</lastmod>
          <changefreq>weekly</changefreq>
          <priority>1.0</priority>
      </url>
      
      <url>
          <loc>https://Reitstaetter.gitlab.io/terminolo-git-4-ws-202205/ValueSet-appc-anatomie.html</loc>
          <lastmod>2022-05-17</lastmod>
          <changefreq>weekly</changefreq>
          <priority>1.0</priority>
      </url>
      
      <url>
          <loc>https://Reitstaetter.gitlab.io/terminolo-git-4-ws-202205/CodeSystem-zuppl-lkf-diagnose-art-4-lkf-diagnose-art.html</loc>
          <lastmod>2022-05-17</lastmod>
          <changefreq>weekly</changefreq>
          <priority>1.0</priority>
      </url>
      
      <url>
          <loc>https://Reitstaetter.gitlab.io/terminolo-git-4-ws-202205/CodeSystem-zuppl-elga-entlassungsmanagementar-4-elga-entlassungsmanagementa.html</loc>
          <lastmod>2022-05-17</lastmod>
          <changefreq>weekly</changefreq>
          <priority>1.0</priority>
      </url>
      
      <url>
          <loc>https://Reitstaetter.gitlab.io/terminolo-git-4-ws-202205/CodeSystem-zuppl-appc-prozeduren-4-appc-prozeduren.html</loc>
          <lastmod>2022-05-17</lastmod>
          <changefreq>weekly</changefreq>
          <priority>1.0</priority>
      </url>
      
      <url>
          <loc>https://Reitstaetter.gitlab.io/terminolo-git-4-ws-202205/CodeSystem-zuppl-hl7-act-site-4-elga-humanactsite.html</loc>
          <lastmod>2022-05-17</lastmod>
          <changefreq>weekly</changefreq>
          <priority>1.0</priority>
      </url>
      
      <url>
          <loc>https://Reitstaetter.gitlab.io/terminolo-git-4-ws-202205/CodeSystem-zuppl-iso-3166-alpha-2-code-4-elga-realmcode.html</loc>
          <lastmod>2022-05-17</lastmod>
          <changefreq>weekly</changefreq>
          <priority>1.0</priority>
      </url>
      
      <url>
          <loc>https://Reitstaetter.gitlab.io/terminolo-git-4-ws-202205/CodeSystem-zuppl-snomed-ct-auszug-4-dgc-diseaseoragent.html</loc>
          <lastmod>2022-05-17</lastmod>
          <changefreq>weekly</changefreq>
          <priority>1.0</priority>
      </url>
      
      <url>
          <loc>https://Reitstaetter.gitlab.io/terminolo-git-4-ws-202205/CodeSystem-zuppl-snomed-ct-auszug-4-ems-taetigkeitsbereich.html</loc>
          <lastmod>2022-05-17</lastmod>
          <changefreq>weekly</changefreq>
          <priority>1.0</priority>
      </url>
      
      <url>
          <loc>https://Reitstaetter.gitlab.io/terminolo-git-4-ws-202205/CodeSystem-zuppl-loinc-4-elga-sectionspflegesitber.html</loc>
          <lastmod>2022-05-17</lastmod>
          <changefreq>weekly</changefreq>
          <priority>1.0</priority>
      </url>
      
      <url>
          <loc>https://Reitstaetter.gitlab.io/terminolo-git-4-ws-202205/CodeSystem-zuppl-rast-klassen-4-elga-observationinterpretat.html</loc>
          <lastmod>2022-05-17</lastmod>
          <changefreq>weekly</changefreq>
          <priority>1.0</priority>
      </url>
      
      <url>
          <loc>https://Reitstaetter.gitlab.io/terminolo-git-4-ws-202205/CodeSystem-zuppl-ucum-4-zeiteinheiten.html</loc>
          <lastmod>2022-05-17</lastmod>
          <changefreq>weekly</changefreq>
          <priority>1.0</priority>
      </url>
      
      <url>
          <loc>https://Reitstaetter.gitlab.io/terminolo-git-4-ws-202205/CodeSystem-zuppl-elga-gtelvogdarollen-4-eimpf-impfrollen.html</loc>
          <lastmod>2022-05-17</lastmod>
          <changefreq>weekly</changefreq>
          <priority>1.0</priority>
      </url>
      
      <url>
          <loc>https://Reitstaetter.gitlab.io/terminolo-git-4-ws-202205/CodeSystem-zuppl-elga-actcode-4-elga-actcode-abginfo.html</loc>
          <lastmod>2022-05-17</lastmod>
          <changefreq>weekly</changefreq>
          <priority>1.0</priority>
      </url>
      
      <url>
          <loc>https://Reitstaetter.gitlab.io/terminolo-git-4-ws-202205/CodeSystem-zuppl-ems-krankheitsmerkmale-4-ems-klinischemanifestation.html</loc>
          <lastmod>2022-05-17</lastmod>
          <changefreq>weekly</changefreq>
          <priority>1.0</priority>
      </url>
      
      <url>
          <loc>https://Reitstaetter.gitlab.io/terminolo-git-4-ws-202205/CodeSystem-zuppl-medikationdarreichungsform-4-elga-medikationdarreichungs.html</loc>
          <lastmod>2022-05-17</lastmod>
          <changefreq>weekly</changefreq>
          <priority>1.0</priority>
      </url>
      
      <url>
          <loc>https://Reitstaetter.gitlab.io/terminolo-git-4-ws-202205/CodeSystem-zuppl-snomed-ct-auszug-4-elga-probenmaterial.html</loc>
          <lastmod>2022-05-17</lastmod>
          <changefreq>weekly</changefreq>
          <priority>1.0</priority>
      </url>
      
      <url>
          <loc>https://Reitstaetter.gitlab.io/terminolo-git-4-ws-202205/CodeSystem-zuppl-medikationrezeptart-4-elga-medikationrezeptart.html</loc>
          <lastmod>2022-05-17</lastmod>
          <changefreq>weekly</changefreq>
          <priority>1.0</priority>
      </url>
      
      <url>
          <loc>https://Reitstaetter.gitlab.io/terminolo-git-4-ws-202205/CodeSystem-zuppl-snomed-ct-auszug-4-eimpf-specialsituationindic.html</loc>
          <lastmod>2022-05-17</lastmod>
          <changefreq>weekly</changefreq>
          <priority>1.0</priority>
      </url>
      
      <url>
          <loc>https://Reitstaetter.gitlab.io/terminolo-git-4-ws-202205/CodeSystem-zuppl-elga-laborparameterergaenzun-4-elga-laborparameter.html</loc>
          <lastmod>2022-05-17</lastmod>
          <changefreq>weekly</changefreq>
          <priority>1.0</priority>
      </url>
      
      <url>
          <loc>https://Reitstaetter.gitlab.io/terminolo-git-4-ws-202205/CodeSystem-zuppl-elga-formatcodezusatz-4-elga-formatcodezusatz.html</loc>
          <lastmod>2022-05-17</lastmod>
          <changefreq>weekly</changefreq>
          <priority>1.0</priority>
      </url>
      
      <url>
          <loc>https://Reitstaetter.gitlab.io/terminolo-git-4-ws-202205/CodeSystem-zuppl-eimpf-ergaenzung-4-dgc-doses.html</loc>
          <lastmod>2022-05-17</lastmod>
          <changefreq>weekly</changefreq>
          <priority>1.0</priority>
      </url>
      
      <url>
          <loc>https://Reitstaetter.gitlab.io/terminolo-git-4-ws-202205/CodeSystem-zuppl-snomed-ct-auszug-4-elga-serviceeventslabor.html</loc>
          <lastmod>2022-05-17</lastmod>
          <changefreq>weekly</changefreq>
          <priority>1.0</priority>
      </url>
      
      <url>
          <loc>https://Reitstaetter.gitlab.io/terminolo-git-4-ws-202205/CodeSystem-zuppl-hl7-marital-status-4-elga-maritalstatus.html</loc>
          <lastmod>2022-05-17</lastmod>
          <changefreq>weekly</changefreq>
          <priority>1.0</priority>
      </url>
      
      <url>
          <loc>https://Reitstaetter.gitlab.io/terminolo-git-4-ws-202205/CodeSystem-zuppl-elga-laborparameterergaenzun-4-elga-laborstruktur.html</loc>
          <lastmod>2022-05-17</lastmod>
          <changefreq>weekly</changefreq>
          <priority>1.0</priority>
      </url>
      
      <url>
          <loc>https://Reitstaetter.gitlab.io/terminolo-git-4-ws-202205/index_en.html</loc>
          <lastmod>2022-05-17</lastmod>
          <changefreq>weekly</changefreq>
          <priority>1.0</priority>
      </url>
      
      <url>
          <loc>https://Reitstaetter.gitlab.io/terminolo-git-4-ws-202205/CodeSystem-zuppl-loinc-4-eimpf-antikoerperbestimmung.html</loc>
          <lastmod>2022-05-17</lastmod>
          <changefreq>weekly</changefreq>
          <priority>1.0</priority>
      </url>
      
      <url>
          <loc>https://Reitstaetter.gitlab.io/terminolo-git-4-ws-202205/documentation_and_support_en.html</loc>
          <lastmod>2022-05-17</lastmod>
          <changefreq>weekly</changefreq>
          <priority>1.0</priority>
      </url>
      
      <url>
          <loc>https://Reitstaetter.gitlab.io/terminolo-git-4-ws-202205/CodeSystem-zuppl-medikation-ages-wirkstoffe-4-elga-wirkstoffe-ages.html</loc>
          <lastmod>2022-05-17</lastmod>
          <changefreq>weekly</changefreq>
          <priority>1.0</priority>
      </url>
      
      <url>
          <loc>https://Reitstaetter.gitlab.io/terminolo-git-4-ws-202205/CodeSystem-zuppl-snomed-ct-auszug-4-elga-criticalityobservation.html</loc>
          <lastmod>2022-05-17</lastmod>
          <changefreq>weekly</changefreq>
          <priority>1.0</priority>
      </url>
      
      <url>
          <loc>https://Reitstaetter.gitlab.io/terminolo-git-4-ws-202205/CodeSystem-zuppl-elga-urlschemeergaenzung-4-elga-urlscheme.html</loc>
          <lastmod>2022-05-17</lastmod>
          <changefreq>weekly</changefreq>
          <priority>1.0</priority>
      </url>
      
      <url>
          <loc>https://Reitstaetter.gitlab.io/terminolo-git-4-ws-202205/CodeSystem-zuppl-icd-10-bmg-2020-4-elga-problemkataloge.html</loc>
          <lastmod>2022-05-17</lastmod>
          <changefreq>weekly</changefreq>
          <priority>1.0</priority>
      </url>
      
      <url>
          <loc>https://Reitstaetter.gitlab.io/terminolo-git-4-ws-202205/CodeSystem-zuppl-elga-gtelvogdarollen-4-elga-authorspeciality.html</loc>
          <lastmod>2022-05-17</lastmod>
          <changefreq>weekly</changefreq>
          <priority>1.0</priority>
      </url>
      
      <url>
          <loc>https://Reitstaetter.gitlab.io/terminolo-git-4-ws-202205/CodeSystem-zuppl-hl7-act-code-4-elga-actencountercode.html</loc>
          <lastmod>2022-05-17</lastmod>
          <changefreq>weekly</changefreq>
          <priority>1.0</priority>
      </url>
      
      <url>
          <loc>https://Reitstaetter.gitlab.io/terminolo-git-4-ws-202205/CodeSystem-zuppl-timingevent-4-elga-einnahmezeitpunkte.html</loc>
          <lastmod>2022-05-17</lastmod>
          <changefreq>weekly</changefreq>
          <priority>1.0</priority>
      </url>
      
      <url>
          <loc>https://Reitstaetter.gitlab.io/terminolo-git-4-ws-202205/CodeSystem-zuppl-snomed-ct-auszug-4-elga-artderdiagnose.html</loc>
          <lastmod>2022-05-17</lastmod>
          <changefreq>weekly</changefreq>
          <priority>1.0</priority>
      </url>
      
      <url>
          <loc>https://Reitstaetter.gitlab.io/terminolo-git-4-ws-202205/CodeSystem-zuppl-loinc-4-dgc-typeoftest.html</loc>
          <lastmod>2022-05-17</lastmod>
          <changefreq>weekly</changefreq>
          <priority>1.0</priority>
      </url>
      
      <url>
          <loc>https://Reitstaetter.gitlab.io/terminolo-git-4-ws-202205/CodeSystem-zuppl-snomed-ct-auszug-4-ems-klinischemanifestation.html</loc>
          <lastmod>2022-05-17</lastmod>
          <changefreq>weekly</changefreq>
          <priority>1.0</priority>
      </url>
      
      <url>
          <loc>https://Reitstaetter.gitlab.io/terminolo-git-4-ws-202205/CodeSystem-zuppl-snomed-ct-auszug-4-elga-specimentype.html</loc>
          <lastmod>2022-05-17</lastmod>
          <changefreq>weekly</changefreq>
          <priority>1.0</priority>
      </url>
      
      <url>
          <loc>https://Reitstaetter.gitlab.io/terminolo-git-4-ws-202205/CodeSystem-zuppl-elga-auditsourcetype-4-elga-auditsourcetype.html</loc>
          <lastmod>2022-05-17</lastmod>
          <changefreq>weekly</changefreq>
          <priority>1.0</priority>
      </url>
      
      <url>
          <loc>https://Reitstaetter.gitlab.io/terminolo-git-4-ws-202205/CodeSystem-zuppl-elga-sections-4-elga-sectionsserviceevents.html</loc>
          <lastmod>2022-05-17</lastmod>
          <changefreq>weekly</changefreq>
          <priority>1.0</priority>
      </url>
      
      <url>
          <loc>https://Reitstaetter.gitlab.io/terminolo-git-4-ws-202205/CodeSystem-zuppl-hl7-act-code-4-ems-impfstatus.html</loc>
          <lastmod>2022-05-17</lastmod>
          <changefreq>weekly</changefreq>
          <priority>1.0</priority>
      </url>
      
      <url>
          <loc>https://Reitstaetter.gitlab.io/terminolo-git-4-ws-202205/CodeSystem-appc-anatomie.html</loc>
          <lastmod>2022-05-17</lastmod>
          <changefreq>weekly</changefreq>
          <priority>1.0</priority>
      </url>
      
      <url>
          <loc>https://Reitstaetter.gitlab.io/terminolo-git-4-ws-202205/CodeSystem-zuppl-elga-medikationmengenartalte-4-elga-medikationmengenartalt.html</loc>
          <lastmod>2022-05-17</lastmod>
          <changefreq>weekly</changefreq>
          <priority>1.0</priority>
      </url>
      
      <url>
          <loc>https://Reitstaetter.gitlab.io/terminolo-git-4-ws-202205/CodeSystem-zuppl-hl7-address-use-4-elga-telecomaddressuse.html</loc>
          <lastmod>2022-05-17</lastmod>
          <changefreq>weekly</changefreq>
          <priority>1.0</priority>
      </url>
      
      <url>
          <loc>https://Reitstaetter.gitlab.io/terminolo-git-4-ws-202205/CodeSystem-zuppl-snomed-ct-auszug-4-eimpf-antikoerperbestimmung.html</loc>
          <lastmod>2022-05-17</lastmod>
          <changefreq>weekly</changefreq>
          <priority>1.0</priority>
      </url>
      
      <url>
          <loc>https://Reitstaetter.gitlab.io/terminolo-git-4-ws-202205/CodeSystem-zuppl-requestpriority-4-elga-conditionverifications.html</loc>
          <lastmod>2022-05-17</lastmod>
          <changefreq>weekly</changefreq>
          <priority>1.0</priority>
      </url>
      
      <url>
          <loc>https://Reitstaetter.gitlab.io/terminolo-git-4-ws-202205/index.html</loc>
          <lastmod>2022-05-17</lastmod>
          <changefreq>weekly</changefreq>
          <priority>1.0</priority>
      </url>
      
      <url>
          <loc>https://Reitstaetter.gitlab.io/terminolo-git-4-ws-202205/CodeSystem-zuppl-ips-absentorunknowndata-4-elga-absentorunknownallergi.html</loc>
          <lastmod>2022-05-17</lastmod>
          <changefreq>weekly</changefreq>
          <priority>1.0</priority>
      </url>
      
      <url>
          <loc>https://Reitstaetter.gitlab.io/terminolo-git-4-ws-202205/CodeSystem-zuppl-hl7-languageabilitymode-4-elga-languageabilitymode.html</loc>
          <lastmod>2022-05-17</lastmod>
          <changefreq>weekly</changefreq>
          <priority>1.0</priority>
      </url>
      
      <url>
          <loc>https://Reitstaetter.gitlab.io/terminolo-git-4-ws-202205/CodeSystem-zuppl-elga-laborparameterergaenzun-4-elga-serviceeventslabor.html</loc>
          <lastmod>2022-05-17</lastmod>
          <changefreq>weekly</changefreq>
          <priority>1.0</priority>
      </url>
      
      <url>
          <loc>https://Reitstaetter.gitlab.io/terminolo-git-4-ws-202205/CodeSystem-zuppl-snomed-ct-auszug-4-elga-vitalparameterarten.html</loc>
          <lastmod>2022-05-17</lastmod>
          <changefreq>weekly</changefreq>
          <priority>1.0</priority>
      </url>
      
      <url>
          <loc>https://Reitstaetter.gitlab.io/terminolo-git-4-ws-202205/CodeSystem-zuppl-elga-gtelvogdarollen-4-elga-healthcarefacilitytype.html</loc>
          <lastmod>2022-05-17</lastmod>
          <changefreq>weekly</changefreq>
          <priority>1.0</priority>
      </url>
      
      <url>
          <loc>https://Reitstaetter.gitlab.io/terminolo-git-4-ws-202205/CodeSystem-zuppl-appc-anatomie-4-appc-anatomie.html</loc>
          <lastmod>2022-05-17</lastmod>
          <changefreq>weekly</changefreq>
          <priority>1.0</priority>
      </url>
      
      <url>
          <loc>https://Reitstaetter.gitlab.io/terminolo-git-4-ws-202205/faq_de.html</loc>
          <lastmod>2022-05-17</lastmod>
          <changefreq>weekly</changefreq>
          <priority>1.0</priority>
      </url>
      
      <url>
          <loc>https://Reitstaetter.gitlab.io/terminolo-git-4-ws-202205/CodeSystem-zuppl-snomed-ct-auszug-4-elga-serviceeventstelemonep.html</loc>
          <lastmod>2022-05-17</lastmod>
          <changefreq>weekly</changefreq>
          <priority>1.0</priority>
      </url>
      
      <url>
          <loc>https://Reitstaetter.gitlab.io/terminolo-git-4-ws-202205/CodeSystem-zuppl-medikationartanwendung-4-elga-medikationartanwendung.html</loc>
          <lastmod>2022-05-17</lastmod>
          <changefreq>weekly</changefreq>
          <priority>1.0</priority>
      </url>
      
      <url>
          <loc>https://Reitstaetter.gitlab.io/terminolo-git-4-ws-202205/CodeSystem-zuppl-hl7-act-code-4-elga-medikationabgabeart.html</loc>
          <lastmod>2022-05-17</lastmod>
          <changefreq>weekly</changefreq>
          <priority>1.0</priority>
      </url>
      
      <url>
          <loc>https://Reitstaetter.gitlab.io/terminolo-git-4-ws-202205/CodeSystem-zuppl-snomed-ct-auszug-4-dgc-resultofthetest.html</loc>
          <lastmod>2022-05-17</lastmod>
          <changefreq>weekly</changefreq>
          <priority>1.0</priority>
      </url>
      
      <url>
          <loc>https://Reitstaetter.gitlab.io/terminolo-git-4-ws-202205/CodeSystem-zuppl-ems-posneg-4-ems-anti-hcv-immunoblot-ass.html</loc>
          <lastmod>2022-05-17</lastmod>
          <changefreq>weekly</changefreq>
          <priority>1.0</priority>
      </url>
      
      <url>
          <loc>https://Reitstaetter.gitlab.io/terminolo-git-4-ws-202205/CodeSystem-zuppl-hl7-role-class-4-elga-roleclass.html</loc>
          <lastmod>2022-05-17</lastmod>
          <changefreq>weekly</changefreq>
          <priority>1.0</priority>
      </url>
      
      <url>
          <loc>https://Reitstaetter.gitlab.io/terminolo-git-4-ws-202205/CodeSystem-zuppl-hl7-null-flavor-4-elga-nullflavor.html</loc>
          <lastmod>2022-05-17</lastmod>
          <changefreq>weekly</changefreq>
          <priority>1.0</priority>
      </url>
      
      <url>
          <loc>https://Reitstaetter.gitlab.io/terminolo-git-4-ws-202205/CodeSystem-zuppl-hl7-at-religionaustria-4-elga-religiousaffiliation.html</loc>
          <lastmod>2022-05-17</lastmod>
          <changefreq>weekly</changefreq>
          <priority>1.0</priority>
      </url>
      
      <url>
          <loc>https://Reitstaetter.gitlab.io/terminolo-git-4-ws-202205/CodeSystem-zuppl-snomed-ct-auszug-4-elga-sectionsserviceevents.html</loc>
          <lastmod>2022-05-17</lastmod>
          <changefreq>weekly</changefreq>
          <priority>1.0</priority>
      </url>
      
      <url>
          <loc>https://Reitstaetter.gitlab.io/terminolo-git-4-ws-202205/CodeSystem-zuppl-ems-nachweis-4-ems-taetigkeitsbereich.html</loc>
          <lastmod>2022-05-17</lastmod>
          <changefreq>weekly</changefreq>
          <priority>1.0</priority>
      </url>
      
      <url>
          <loc>https://Reitstaetter.gitlab.io/terminolo-git-4-ws-202205/CodeSystem-zuppl-eimpf-ergaenzung-4-eimpf-impfgrund.html</loc>
          <lastmod>2022-05-17</lastmod>
          <changefreq>weekly</changefreq>
          <priority>1.0</priority>
      </url>
      
      <url>
          <loc>https://Reitstaetter.gitlab.io/terminolo-git-4-ws-202205/CodeSystem-zuppl-icd-10-bmg-2017-4-elga-problemkataloge.html</loc>
          <lastmod>2022-05-17</lastmod>
          <changefreq>weekly</changefreq>
          <priority>1.0</priority>
      </url>
      
      <url>
          <loc>https://Reitstaetter.gitlab.io/terminolo-git-4-ws-202205/CodeSystem-zuppl-snomed-ct-auszug-4-ems-impfstatus.html</loc>
          <lastmod>2022-05-17</lastmod>
          <changefreq>weekly</changefreq>
          <priority>1.0</priority>
      </url>
      
      <url>
          <loc>https://Reitstaetter.gitlab.io/terminolo-git-4-ws-202205/CodeSystem-zuppl-loinc-4-elga-sectionsentlassungpfle.html</loc>
          <lastmod>2022-05-17</lastmod>
          <changefreq>weekly</changefreq>
          <priority>1.0</priority>
      </url>
      
      <url>
          <loc>https://Reitstaetter.gitlab.io/terminolo-git-4-ws-202205/CodeSystem-zuppl-ems-nachweis-4-ems-betreuung.html</loc>
          <lastmod>2022-05-17</lastmod>
          <changefreq>weekly</changefreq>
          <priority>1.0</priority>
      </url>
      
      <url>
          <loc>https://Reitstaetter.gitlab.io/terminolo-git-4-ws-202205/CodeSystem-zuppl-iana-mime-type-4-elga-medientyp.html</loc>
          <lastmod>2022-05-17</lastmod>
          <changefreq>weekly</changefreq>
          <priority>1.0</priority>
      </url>
      
      <url>
          <loc>https://Reitstaetter.gitlab.io/terminolo-git-4-ws-202205/CodeSystem-zuppl-ems-materialmethode-4-ems-materialmethode.html</loc>
          <lastmod>2022-05-17</lastmod>
          <changefreq>weekly</changefreq>
          <priority>1.0</priority>
      </url>
      
      <url>
          <loc>https://Reitstaetter.gitlab.io/terminolo-git-4-ws-202205/CodeSystem-zuppl-ems-posneg-4-ems-hcv-core-ag-assay.html</loc>
          <lastmod>2022-05-17</lastmod>
          <changefreq>weekly</changefreq>
          <priority>1.0</priority>
      </url>
      
      <url>
          <loc>https://Reitstaetter.gitlab.io/terminolo-git-4-ws-202205/CodeSystem-zuppl-elga-specimentype-ergaenzung-4-elga-specimentype.html</loc>
          <lastmod>2022-05-17</lastmod>
          <changefreq>weekly</changefreq>
          <priority>1.0</priority>
      </url>
      
      <url>
          <loc>https://Reitstaetter.gitlab.io/terminolo-git-4-ws-202205/CodeSystem-zuppl-snomed-ct-auszug-4-elga-allergystatuscode.html</loc>
          <lastmod>2022-05-17</lastmod>
          <changefreq>weekly</changefreq>
          <priority>1.0</priority>
      </url>
      
      <url>
          <loc>https://Reitstaetter.gitlab.io/terminolo-git-4-ws-202205/CodeSystem-zuppl-snomed-ct-auszug-4-eimpf-zusatzklassifikation.html</loc>
          <lastmod>2022-05-17</lastmod>
          <changefreq>weekly</changefreq>
          <priority>1.0</priority>
      </url>
      
      <url>
          <loc>https://Reitstaetter.gitlab.io/terminolo-git-4-ws-202205/CodeSystem-zuppl-dgc-qr-4-dgc-country.html</loc>
          <lastmod>2022-05-17</lastmod>
          <changefreq>weekly</changefreq>
          <priority>1.0</priority>
      </url>
      
      <url>
          <loc>https://Reitstaetter.gitlab.io/terminolo-git-4-ws-202205/CodeSystem-zuppl-iso-639-2-4-langid-at.html</loc>
          <lastmod>2022-05-17</lastmod>
          <changefreq>weekly</changefreq>
          <priority>1.0</priority>
      </url>
      
      <url>
          <loc>https://Reitstaetter.gitlab.io/terminolo-git-4-ws-202205/toc.html</loc>
          <lastmod>2022-05-17</lastmod>
          <changefreq>weekly</changefreq>
          <priority>1.0</priority>
      </url>
      
      <url>
          <loc>https://Reitstaetter.gitlab.io/terminolo-git-4-ws-202205/CodeSystem-zuppl-elga-sections-4-elga-sectionspflegesitber.html</loc>
          <lastmod>2022-05-17</lastmod>
          <changefreq>weekly</changefreq>
          <priority>1.0</priority>
      </url>
      
      <url>
          <loc>https://Reitstaetter.gitlab.io/terminolo-git-4-ws-202205/CodeSystem-zuppl-dcm-4-elga-dosisparameter.html</loc>
          <lastmod>2022-05-17</lastmod>
          <changefreq>weekly</changefreq>
          <priority>1.0</priority>
      </url>
      
      <url>
          <loc>https://Reitstaetter.gitlab.io/terminolo-git-4-ws-202205/CodeSystem-zuppl-hl7-language-identification-4-elga-languagecode.html</loc>
          <lastmod>2022-05-17</lastmod>
          <changefreq>weekly</changefreq>
          <priority>1.0</priority>
      </url>
      
      <url>
          <loc>https://Reitstaetter.gitlab.io/terminolo-git-4-ws-202205/CodeSystem-zuppl-snomed-ct-auszug-4-elga-problemseverity.html</loc>
          <lastmod>2022-05-17</lastmod>
          <changefreq>weekly</changefreq>
          <priority>1.0</priority>
      </url>
      
      <url>
          <loc>https://Reitstaetter.gitlab.io/terminolo-git-4-ws-202205/CodeSystem-zuppl-ems-posneg-4-ems-anti-hcv-immunoassay.html</loc>
          <lastmod>2022-05-17</lastmod>
          <changefreq>weekly</changefreq>
          <priority>1.0</priority>
      </url>
      
      <url>
          <loc>https://Reitstaetter.gitlab.io/terminolo-git-4-ws-202205/CodeSystem-zuppl-snomed-ct-auszug-4-elga-problemarten.html</loc>
          <lastmod>2022-05-17</lastmod>
          <changefreq>weekly</changefreq>
          <priority>1.0</priority>
      </url>
      
      <url>
          <loc>https://Reitstaetter.gitlab.io/terminolo-git-4-ws-202205/CodeSystem-zuppl-elga-actcode-4-elga-actcode-patinfo.html</loc>
          <lastmod>2022-05-17</lastmod>
          <changefreq>weekly</changefreq>
          <priority>1.0</priority>
      </url>
      
      <url>
          <loc>https://Reitstaetter.gitlab.io/terminolo-git-4-ws-202205/CodeSystem-zuppl-ucum-4-eimpf-mengenart.html</loc>
          <lastmod>2022-05-17</lastmod>
          <changefreq>weekly</changefreq>
          <priority>1.0</priority>
      </url>
      
      <url>
          <loc>https://Reitstaetter.gitlab.io/terminolo-git-4-ws-202205/CodeSystem-zuppl-hl7-actstatus-4-elga-problemstatuscode.html</loc>
          <lastmod>2022-05-17</lastmod>
          <changefreq>weekly</changefreq>
          <priority>1.0</priority>
      </url>
      
      <url>
          <loc>https://Reitstaetter.gitlab.io/terminolo-git-4-ws-202205/CodeSystem-zuppl-snomed-ct-auszug-4-elga-problemkataloge.html</loc>
          <lastmod>2022-05-17</lastmod>
          <changefreq>weekly</changefreq>
          <priority>1.0</priority>
      </url>
      
      <url>
          <loc>https://Reitstaetter.gitlab.io/terminolo-git-4-ws-202205/CodeSystem-zuppl-elga-mammogramassessment-4-elga-mammogramassessment.html</loc>
          <lastmod>2022-05-17</lastmod>
          <changefreq>weekly</changefreq>
          <priority>1.0</priority>
      </url>
      
      <url>
          <loc>https://Reitstaetter.gitlab.io/terminolo-git-4-ws-202205/CodeSystem-zuppl-elga-sections-4-elga-sectionsentlassungpfle.html</loc>
          <lastmod>2022-05-17</lastmod>
          <changefreq>weekly</changefreq>
          <priority>1.0</priority>
      </url>
      
      <url>
          <loc>https://Reitstaetter.gitlab.io/terminolo-git-4-ws-202205/CodeSystem-zuppl-eimpf-historischeimpfstoffe-4-eimpf-historischeimpfstoffe.html</loc>
          <lastmod>2022-05-17</lastmod>
          <changefreq>weekly</changefreq>
          <priority>1.0</priority>
      </url>
      
      <url>
          <loc>https://Reitstaetter.gitlab.io/terminolo-git-4-ws-202205/CodeSystem-zuppl-hl7-role-code-4-elga-insuredassocentity.html</loc>
          <lastmod>2022-05-17</lastmod>
          <changefreq>weekly</changefreq>
          <priority>1.0</priority>
      </url>
      
      <url>
          <loc>https://Reitstaetter.gitlab.io/terminolo-git-4-ws-202205/CodeSystem-zuppl-icd-10-bmg-2017-4-ems-meldepflichtige-krankhe.html</loc>
          <lastmod>2022-05-17</lastmod>
          <changefreq>weekly</changefreq>
          <priority>1.0</priority>
      </url>
      
      <url>
          <loc>https://Reitstaetter.gitlab.io/terminolo-git-4-ws-202205/CodeSystem-zuppl-loinc-4-hl7-at-xds-dokumentenklasse.html</loc>
          <lastmod>2022-05-17</lastmod>
          <changefreq>weekly</changefreq>
          <priority>1.0</priority>
      </url>
      
      <url>
          <loc>https://Reitstaetter.gitlab.io/terminolo-git-4-ws-202205/CodeSystem-zuppl-snomed-ct-auszug-4-eimpf-impfrelevanteerkranku.html</loc>
          <lastmod>2022-05-17</lastmod>
          <changefreq>weekly</changefreq>
          <priority>1.0</priority>
      </url>
      
      <url>
          <loc>https://Reitstaetter.gitlab.io/terminolo-git-4-ws-202205/CodeSystem-zuppl-snomed-ct-auszug-4-elga-allergyorintolerancety.html</loc>
          <lastmod>2022-05-17</lastmod>
          <changefreq>weekly</changefreq>
          <priority>1.0</priority>
      </url>
      
      <url>
          <loc>https://Reitstaetter.gitlab.io/terminolo-git-4-ws-202205/CodeSystem-zuppl-loinc-4-elga-laborparameter.html</loc>
          <lastmod>2022-05-17</lastmod>
          <changefreq>weekly</changefreq>
          <priority>1.0</priority>
      </url>
      
      <url>
          <loc>https://Reitstaetter.gitlab.io/terminolo-git-4-ws-202205/CodeSystem-zuppl-elga-auditparticipantobjecti-4-elga-auditparticipantobject.html</loc>
          <lastmod>2022-05-17</lastmod>
          <changefreq>weekly</changefreq>
          <priority>1.0</priority>
      </url>
      
      <url>
          <loc>https://Reitstaetter.gitlab.io/terminolo-git-4-ws-202205/CodeSystem-zuppl-elga-practicesetting-4-elga-practicesetting.html</loc>
          <lastmod>2022-05-17</lastmod>
          <changefreq>weekly</changefreq>
          <priority>1.0</priority>
      </url>
      
      <url>
          <loc>https://Reitstaetter.gitlab.io/terminolo-git-4-ws-202205/CodeSystem-zuppl-ems-reiseland-4-ems-reiseland.html</loc>
          <lastmod>2022-05-17</lastmod>
          <changefreq>weekly</changefreq>
          <priority>1.0</priority>
      </url>
      
      <url>
          <loc>https://Reitstaetter.gitlab.io/terminolo-git-4-ws-202205/CodeSystem-zuppl-snomed-ct-auszug-4-ems-betreuung.html</loc>
          <lastmod>2022-05-17</lastmod>
          <changefreq>weekly</changefreq>
          <priority>1.0</priority>
      </url>
      
      <url>
          <loc>https://Reitstaetter.gitlab.io/terminolo-git-4-ws-202205/CodeSystem-zuppl-eimpf-ergaenzung-4-eimpf-specialcasevaccinatio.html</loc>
          <lastmod>2022-05-17</lastmod>
          <changefreq>weekly</changefreq>
          <priority>1.0</priority>
      </url>
      
      <url>
          <loc>https://Reitstaetter.gitlab.io/terminolo-git-4-ws-202205/CodeSystem-zuppl-eimpf-impfstoffe-4-dgc-medicinalproduct.html</loc>
          <lastmod>2022-05-17</lastmod>
          <changefreq>weekly</changefreq>
          <priority>1.0</priority>
      </url>
      
      <url>
          <loc>https://Reitstaetter.gitlab.io/terminolo-git-4-ws-202205/CodeSystem-zuppl-appc-modalitaet-4-appc-modalitaet.html</loc>
          <lastmod>2022-05-17</lastmod>
          <changefreq>weekly</changefreq>
          <priority>1.0</priority>
      </url>
      
      <url>
          <loc>https://Reitstaetter.gitlab.io/terminolo-git-4-ws-202205/CodeSystem-zuppl-elga-funktionsrollen-4-elga-auditroleid.html</loc>
          <lastmod>2022-05-17</lastmod>
          <changefreq>weekly</changefreq>
          <priority>1.0</priority>
      </url>
      
      <url>
          <loc>https://Reitstaetter.gitlab.io/terminolo-git-4-ws-202205/CodeSystem-zuppl-hl7-participation-function-4-elga-participationfunctionc.html</loc>
          <lastmod>2022-05-17</lastmod>
          <changefreq>weekly</changefreq>
          <priority>1.0</priority>
      </url>
      
      <url>
          <loc>https://Reitstaetter.gitlab.io/terminolo-git-4-ws-202205/CodeSystem-zuppl-ucum-4-elga-medikationfrequenz.html</loc>
          <lastmod>2022-05-17</lastmod>
          <changefreq>weekly</changefreq>
          <priority>1.0</priority>
      </url>
      
      <url>
          <loc>https://Reitstaetter.gitlab.io/terminolo-git-4-ws-202205/CodeSystem-zuppl-eimpf-ergaenzung-4-eimpf-impfschema.html</loc>
          <lastmod>2022-05-17</lastmod>
          <changefreq>weekly</changefreq>
          <priority>1.0</priority>
      </url>
      
      <url>
          <loc>https://Reitstaetter.gitlab.io/terminolo-git-4-ws-202205/CodeSystem-zuppl-atc-deutsch-wido-4-dgc-vaccine.html</loc>
          <lastmod>2022-05-17</lastmod>
          <changefreq>weekly</changefreq>
          <priority>1.0</priority>
      </url>
      
      <url>
          <loc>https://Reitstaetter.gitlab.io/terminolo-git-4-ws-202205/CodeSystem-zuppl-dicom-sopclasses-4-dicom-sopclasses.html</loc>
          <lastmod>2022-05-17</lastmod>
          <changefreq>weekly</changefreq>
          <priority>1.0</priority>
      </url>
      
      <url>
          <loc>https://Reitstaetter.gitlab.io/terminolo-git-4-ws-202205/CodeSystem-zuppl-snomed-ct-auszug-4-eimpf-immunizationtarget.html</loc>
          <lastmod>2022-05-17</lastmod>
          <changefreq>weekly</changefreq>
          <priority>1.0</priority>
      </url>
      
      <url>
          <loc>https://Reitstaetter.gitlab.io/terminolo-git-4-ws-202205/CodeSystem-zuppl-loinc-4-elga-serviceeventslabor.html</loc>
          <lastmod>2022-05-17</lastmod>
          <changefreq>weekly</changefreq>
          <priority>1.0</priority>
      </url>
      
      <url>
          <loc>https://Reitstaetter.gitlab.io/terminolo-git-4-ws-202205/artifacts.html</loc>
          <lastmod>2022-05-17</lastmod>
          <changefreq>weekly</changefreq>
          <priority>1.0</priority>
      </url>
      
      <url>
          <loc>https://Reitstaetter.gitlab.io/terminolo-git-4-ws-202205/CodeSystem-zuppl-elga-allergietyp-4-elga-allergietyp.html</loc>
          <lastmod>2022-05-17</lastmod>
          <changefreq>weekly</changefreq>
          <priority>1.0</priority>
      </url>
      
      <url>
          <loc>https://Reitstaetter.gitlab.io/terminolo-git-4-ws-202205/CodeSystem-zuppl-snomed-ct-auszug-4-ems-lebensmittelbedingteint.html</loc>
          <lastmod>2022-05-17</lastmod>
          <changefreq>weekly</changefreq>
          <priority>1.0</priority>
      </url>
      
      <url>
          <loc>https://Reitstaetter.gitlab.io/terminolo-git-4-ws-202205/CodeSystem-zuppl-eimpf-ergaenzung-4-eimpf-zusatzklassifikation.html</loc>
          <lastmod>2022-05-17</lastmod>
          <changefreq>weekly</changefreq>
          <priority>1.0</priority>
      </url>
      
      <url>
          <loc>https://Reitstaetter.gitlab.io/terminolo-git-4-ws-202205/faq_en.html</loc>
          <lastmod>2022-05-17</lastmod>
          <changefreq>weekly</changefreq>
          <priority>1.0</priority>
      </url>
      
      <url>
          <loc>https://Reitstaetter.gitlab.io/terminolo-git-4-ws-202205/CodeSystem-zuppl-loinc-4-elga-kulturerregernachweis.html</loc>
          <lastmod>2022-05-17</lastmod>
          <changefreq>weekly</changefreq>
          <priority>1.0</priority>
      </url>
      
      <url>
          <loc>https://Reitstaetter.gitlab.io/terminolo-git-4-ws-202205/CodeSystem-zuppl-snomed-ct-auszug-4-elga-nachweisergebnis.html</loc>
          <lastmod>2022-05-17</lastmod>
          <changefreq>weekly</changefreq>
          <priority>1.0</priority>
      </url>
      
      <url>
          <loc>https://Reitstaetter.gitlab.io/terminolo-git-4-ws-202205/CodeSystem-zuppl-snomed-ct-auszug-4-eimpf-specialcasevaccinatio.html</loc>
          <lastmod>2022-05-17</lastmod>
          <changefreq>weekly</changefreq>
          <priority>1.0</priority>
      </url>
      
      <url>
          <loc>https://Reitstaetter.gitlab.io/terminolo-git-4-ws-202205/CodeSystem-zuppl-hl7-administrative-gender-4-elga-administrativegender.html</loc>
          <lastmod>2022-05-17</lastmod>
          <changefreq>weekly</changefreq>
          <priority>1.0</priority>
      </url>
      
      <url>
          <loc>https://Reitstaetter.gitlab.io/terminolo-git-4-ws-202205/documentation_and_support_de.html</loc>
          <lastmod>2022-05-17</lastmod>
          <changefreq>weekly</changefreq>
          <priority>1.0</priority>
      </url>
      
      <url>
          <loc>https://Reitstaetter.gitlab.io/terminolo-git-4-ws-202205/CodeSystem-zuppl-eimpf-ergaenzung-4-eimpf-impfdosis.html</loc>
          <lastmod>2022-05-17</lastmod>
          <changefreq>weekly</changefreq>
          <priority>1.0</priority>
      </url>
      
      <url>
          <loc>https://Reitstaetter.gitlab.io/terminolo-git-4-ws-202205/CodeSystem-zuppl-hl7-observation-interpretati-4-elga-observationinterpretat.html</loc>
          <lastmod>2022-05-17</lastmod>
          <changefreq>weekly</changefreq>
          <priority>1.0</priority>
      </url>
      
      <url>
          <loc>https://Reitstaetter.gitlab.io/terminolo-git-4-ws-202205/CodeSystem-zuppl-eimpf-ergaenzung-4-eimpf-immunizationtarget.html</loc>
          <lastmod>2022-05-17</lastmod>
          <changefreq>weekly</changefreq>
          <priority>1.0</priority>
      </url>
      
      <url>
          <loc>https://Reitstaetter.gitlab.io/terminolo-git-4-ws-202205/CodeSystem-zuppl-hl7-entity-name-use-4-elga-entitynameuse.html</loc>
          <lastmod>2022-05-17</lastmod>
          <changefreq>weekly</changefreq>
          <priority>1.0</priority>
      </url>
      
      <url>
          <loc>https://Reitstaetter.gitlab.io/terminolo-git-4-ws-202205/CodeSystem-zuppl-dcm-4-elga-sectionsradiologie.html</loc>
          <lastmod>2022-05-17</lastmod>
          <changefreq>weekly</changefreq>
          <priority>1.0</priority>
      </url>
      
      <url>
          <loc>https://Reitstaetter.gitlab.io/terminolo-git-4-ws-202205/CodeSystem-zuppl-elga-auditeventtypea-arr-4-elga-auditeventtype-a-arr.html</loc>
          <lastmod>2022-05-17</lastmod>
          <changefreq>weekly</changefreq>
          <priority>1.0</priority>
      </url>
      
      <url>
          <loc>https://Reitstaetter.gitlab.io/terminolo-git-4-ws-202205/CodeSystem-zuppl-ucum-4-elga-medikationmengenart.html</loc>
          <lastmod>2022-05-17</lastmod>
          <changefreq>weekly</changefreq>
          <priority>1.0</priority>
      </url>
      
      <url>
          <loc>https://Reitstaetter.gitlab.io/terminolo-git-4-ws-202205/CodeSystem-zuppl-elga-ergaenzungsliste-4-elga-observationinterpretat.html</loc>
          <lastmod>2022-05-17</lastmod>
          <changefreq>weekly</changefreq>
          <priority>1.0</priority>
      </url>
      
      <url>
          <loc>https://Reitstaetter.gitlab.io/terminolo-git-4-ws-202205/CodeSystem-zuppl-elga-gda-aggregatrollen-4-elga-auditroleid.html</loc>
          <lastmod>2022-05-17</lastmod>
          <changefreq>weekly</changefreq>
          <priority>1.0</priority>
      </url>
      
      <url>
          <loc>https://Reitstaetter.gitlab.io/terminolo-git-4-ws-202205/CodeSystem-zuppl-hl7-proficiencylevelcode-4-elga-proficiencylevelcode.html</loc>
          <lastmod>2022-05-17</lastmod>
          <changefreq>weekly</changefreq>
          <priority>1.0</priority>
      </url>
      
      <url>
          <loc>https://Reitstaetter.gitlab.io/terminolo-git-4-ws-202205/CodeSystem-zuppl-dgc-ratnamemanufacturer-4-dgc-ratnamemanufacturer.html</loc>
          <lastmod>2022-05-17</lastmod>
          <changefreq>weekly</changefreq>
          <priority>1.0</priority>
      </url>
      
      <url>
          <loc>https://Reitstaetter.gitlab.io/terminolo-git-4-ws-202205/CodeSystem-zuppl-elga-significantpathogens-4-elga-significantpathogens.html</loc>
          <lastmod>2022-05-17</lastmod>
          <changefreq>weekly</changefreq>
          <priority>1.0</priority>
      </url>
      
      <url>
          <loc>https://Reitstaetter.gitlab.io/terminolo-git-4-ws-202205/CodeSystem-zuppl-sciphox-seitenlokalisation-4-elga-seitenlokalisation.html</loc>
          <lastmod>2022-05-17</lastmod>
          <changefreq>weekly</changefreq>
          <priority>1.0</priority>
      </url>
      
      <url>
          <loc>https://Reitstaetter.gitlab.io/terminolo-git-4-ws-202205/CodeSystem-zuppl-loinc-4-elga-sectionsserviceevents.html</loc>
          <lastmod>2022-05-17</lastmod>
          <changefreq>weekly</changefreq>
          <priority>1.0</priority>
      </url>
      
      <url>
          <loc>https://Reitstaetter.gitlab.io/terminolo-git-4-ws-202205/CodeSystem-zuppl-snomed-ct-auszug-4-elga-allergyorintoleranceag.html</loc>
          <lastmod>2022-05-17</lastmod>
          <changefreq>weekly</changefreq>
          <priority>1.0</priority>
      </url>
      
      <url>
          <loc>https://Reitstaetter.gitlab.io/terminolo-git-4-ws-202205/CodeSystem-zuppl-medikationrezeptpflichtstatu-4-elga-medikationrezeptpflich.html</loc>
          <lastmod>2022-05-17</lastmod>
          <changefreq>weekly</changefreq>
          <priority>1.0</priority>
      </url>
      
      <url>
          <loc>https://Reitstaetter.gitlab.io/terminolo-git-4-ws-202205/CodeSystem-zuppl-hl7-participation-type-4-elga-informationrecipientty.html</loc>
          <lastmod>2022-05-17</lastmod>
          <changefreq>weekly</changefreq>
          <priority>1.0</priority>
      </url>
      
      <url>
          <loc>https://Reitstaetter.gitlab.io/terminolo-git-4-ws-202205/CodeSystem-zuppl-loinc-4-elga-sectionsradiologie.html</loc>
          <lastmod>2022-05-17</lastmod>
          <changefreq>weekly</changefreq>
          <priority>1.0</priority>
      </url>
      
      <url>
          <loc>https://Reitstaetter.gitlab.io/terminolo-git-4-ws-202205/CodeSystem-zuppl-hl7-participation-type-4-elga-serviceeventperformer.html</loc>
          <lastmod>2022-05-17</lastmod>
          <changefreq>weekly</changefreq>
          <priority>1.0</priority>
      </url>
      
      <url>
          <loc>https://Reitstaetter.gitlab.io/terminolo-git-4-ws-202205/CodeSystem-zuppl-ems-ergaenzungmeldepflichtig-4-ems-meldepflichtige-krankhe.html</loc>
          <lastmod>2022-05-17</lastmod>
          <changefreq>weekly</changefreq>
          <priority>1.0</priority>
      </url>
      
      <url>
          <loc>https://Reitstaetter.gitlab.io/terminolo-git-4-ws-202205/CodeSystem-zuppl-dcm-4-elga-auditeventtype.html</loc>
          <lastmod>2022-05-17</lastmod>
          <changefreq>weekly</changefreq>
          <priority>1.0</priority>
      </url>
      
      <url>
          <loc>https://Reitstaetter.gitlab.io/terminolo-git-4-ws-202205/CodeSystem-zuppl-snomed-ct-auszug-4-elga-mikroorganismen.html</loc>
          <lastmod>2022-05-17</lastmod>
          <changefreq>weekly</changefreq>
          <priority>1.0</priority>
      </url>
      
      <url>
          <loc>https://Reitstaetter.gitlab.io/terminolo-git-4-ws-202205/CodeSystem-zuppl-iso-3166-1-alpha-3-4-elga-laendercodes.html</loc>
          <lastmod>2022-05-17</lastmod>
          <changefreq>weekly</changefreq>
          <priority>1.0</priority>
      </url>
      
      <url>
          <loc>https://Reitstaetter.gitlab.io/terminolo-git-4-ws-202205/CodeSystem-zuppl-eimpf-ergaenzung-4-eimpf-specialsituationindic.html</loc>
          <lastmod>2022-05-17</lastmod>
          <changefreq>weekly</changefreq>
          <priority>1.0</priority>
      </url>
      
      <url>
          <loc>https://Reitstaetter.gitlab.io/terminolo-git-4-ws-202205/CodeSystem-zuppl-icd-10-bmg-2020-4-ems-meldepflichtige-krankhe.html</loc>
          <lastmod>2022-05-17</lastmod>
          <changefreq>weekly</changefreq>
          <priority>1.0</priority>
      </url>
      
      <url>
          <loc>https://Reitstaetter.gitlab.io/terminolo-git-4-ws-202205/CodeSystem-zuppl-ihe-pharmaceutical-advice-st-4-elga-medikationpharmazeutis.html</loc>
          <lastmod>2022-05-17</lastmod>
          <changefreq>weekly</changefreq>
          <priority>1.0</priority>
      </url>
      
      <url>
          <loc>https://Reitstaetter.gitlab.io/terminolo-git-4-ws-202205/CodeSystem-zuppl-hl7-urlscheme-4-elga-urlscheme.html</loc>
          <lastmod>2022-05-17</lastmod>
          <changefreq>weekly</changefreq>
          <priority>1.0</priority>
      </url>
      
      <url>
          <loc>https://Reitstaetter.gitlab.io/terminolo-git-4-ws-202205/CodeSystem-zuppl-elga-sections-4-elga-sectionsradiologie.html</loc>
          <lastmod>2022-05-17</lastmod>
          <changefreq>weekly</changefreq>
          <priority>1.0</priority>
      </url>
      
  </urlset>